2021-07-30T20:28:26+00:00 CRITICAL syntax error, unexpected end of file en D:\XAMPP\htdocs\trabajo_diony\sitos_wrodpress\dakmara\wp-content\themes\generatepress\functions.php en la línea 405

2021-07-30T20:28:26+00:00 CRITICAL syntax error, unexpected end of file en D:\XAMPP\htdocs\trabajo_diony\sitos_wrodpress\dakmara\wp-content\themes\generatepress\functions.php en la línea 405

